-------------------------------------------------------------------------------
Test set: com.shiro.demo.cipher.gen.EncryptorTest
-------------------------------------------------------------------------------
Tests run: 3, Failures: 0, Errors: 0, Skipped: 1, Time elapsed: 0.059 sec
